…
ฟังก์ชัน `ymd(), mdy(), mdy()` จากแพ็คเกจ [lubridate](https://cran.r-project.org/web/packages/lubridate/vignettes/lubridate.html) ที่ใช้ในการแปลงการอ่านวันที่ที่แตกต่างกันตามแต่ละประเทศให้เป็น ***ปี/เดือน/วัน*** ให้เข้าง่ายขึ้น\
\
ตัวอย่างการแปลงการอ่านวันที่แบบอเมริกันที่เป็น ***เดือน/วัน/ปี*** หรือใช้ฟังก์ชัน `mdy()`

```R
Superstore_Sales %>%
  select(Order.Date) %>%
  summarise(YYYY_MM_DD = mdy(Superstore_Sales$Order.Date))
```

ผลลัพธ์

```R
# A tibble: 9,800 x 1
   YYYY_MM_DD
   <date>    
 1 2017-08-11
 2 2017-08-11
 3 2017-12-06
 4 2016-11-10
 5 2016-11-10
 6 2015-09-06
 7 2015-09-06
 8 2015-09-06
 9 2015-09-06
10 2015-09-06
# ... with 9,790 more rows
```
…
